#
# There is insufficient memory for the Java Runtime Environment to continue.
# Native memory allocation (mmap) failed to map 130023424 bytes for committing reserved memory.
# Possible reasons:
#   The system is out of physical RAM or swap space
#   In 32 bit mode, the process size limit was hit
# Possible solutions:
#   Reduce memory load on the system
#   Increase physical memory or swap space
#   Check if swap backing store is full
#   Use 64 bit Java on a 64 bit OS
#   Decrease Java heap size (-Xmx/-Xms)
#   Decrease number of Java threads
#   Decrease Java thread stack sizes (-Xss)
#   Set larger code cache with -XX:ReservedCodeCacheSize=
# This output file may be truncated or incomplete.
#
#  Out of Memory Error (os_linux.cpp:2673), pid=4952, tid=139923795531520
#
# JRE version: Java(TM) SE Runtime Environment (8.0_45-b14) (build 1.8.0_45-b14)
# Java VM: Java HotSpot(TM) 64-Bit Server VM (25.45-b02 mixed mode linux-amd64 compressed oops)
# Failed to write core dump. Core dumps have been disabled. To enable core dumping, try "ulimit -c unlimited" before starting Java again
#

---------------  T H R E A D  ---------------

Current thread (0x00007f4288074800):  VMThread [stack: 0x00007f428c10d000,0x00007f428c20e000] [id=4961]

Stack: [0x00007f428c10d000,0x00007f428c20e000],  sp=0x00007f428c20c1e0,  free space=1020k
Native frames: (J=compiled Java code, j=interpreted, Vv=VM code, C=native code)
V  [libjvm.so+0xaac99a]  VMError::report_and_die()+0x2ba
V  [libjvm.so+0x4f333b]  report_vm_out_of_memory(char const*, int, unsigned long, VMErrorType, char const*)+0x8b
V  [libjvm.so+0x90e7c3]  os::Linux::commit_memory_impl(char*, unsigned long, bool)+0x103
V  [libjvm.so+0x90ed19]  os::pd_commit_memory(char*, unsigned long, unsigned long, bool)+0x29
V  [libjvm.so+0x90867a]  os::commit_memory(char*, unsigned long, unsigned long, bool)+0x2a
V  [libjvm.so+0x97bac3]  PSVirtualSpace::expand_by(unsigned long)+0x53
V  [libjvm.so+0x97cec8]  PSYoungGen::resize_generation(unsigned long, unsigned long)+0xf8
V  [libjvm.so+0x97c022]  PSYoungGen::resize(unsigned long, unsigned long)+0x22
V  [libjvm.so+0x9792fb]  PSScavenge::invoke_no_policy()+0xf7b
V  [libjvm.so+0x979a81]  PSScavenge::invoke()+0x41
V  [libjvm.so+0x932050]  ParallelScavengeHeap::failed_mem_allocate(unsigned long)+0x70
V  [libjvm.so+0xaae1d7]  VM_ParallelGCFailedAllocation::doit()+0x97
V  [libjvm.so+0xab59c5]  VM_Operation::evaluate()+0x55
V  [libjvm.so+0xab3d9a]  VMThread::evaluate_operation(VM_Operation*)+0xba
V  [libjvm.so+0xab411e]  VMThread::loop()+0x1ce
V  [libjvm.so+0xab4590]  VMThread::run()+0x70
V  [libjvm.so+0x910de8]  java_start(Thread*)+0x108

VM_Operation (0x00007f42910520b0): ParallelGCFailedAllocation, mode: safepoint, requested by thread 0x00007f428800a800


---------------  P R O C E S S  ---------------

Java Threads: ( => current thread )
  0x00007f42880bd800 JavaThread "Service Thread" daemon [_thread_blocked, id=4967, stack(0x00007f4276593000,0x00007f4276694000)]
  0x00007f42880b9000 JavaThread "C1 CompilerThread1" daemon [_thread_blocked, id=4966, stack(0x00007f4276694000,0x00007f4276795000)]
  0x00007f42880b6000 JavaThread "C2 CompilerThread0" daemon [_thread_blocked, id=4965, stack(0x00007f4276795000,0x00007f4276896000)]
  0x00007f42880b4800 JavaThread "Signal Dispatcher" daemon [_thread_blocked, id=4964, stack(0x00007f4276896000,0x00007f4276997000)]
  0x00007f428807b800 JavaThread "Finalizer" daemon [_thread_blocked, id=4963, stack(0x00007f4276eff000,0x00007f4277000000)]
  0x00007f4288079800 JavaThread "Reference Handler" daemon [_thread_blocked, id=4962, stack(0x00007f428c00c000,0x00007f428c10d000)]
  0x00007f428800a800 JavaThread "main" [_thread_blocked, id=4958, stack(0x00007f4290f53000,0x00007f4291054000)]

Other Threads:
=>0x00007f4288074800 VMThread [stack: 0x00007f428c10d000,0x00007f428c20e000] [id=4961]
  0x00007f42880c0000 WatcherThread [stack: 0x00007f4276492000,0x00007f4276593000] [id=4968]

VM state:at safepoint (normal execution)

VM Mutex/Monitor currently owned by a thread:  ([mutex/lock_event])
[0x00007f4288006e70] Threads_lock - owner thread: 0x00007f4288074800
[0x00007f4288007370] Heap_lock - owner thread: 0x00007f428800a800

Heap:
 PSYoungGen      total 133632K, used 12280K [0x00000000eab00000, 0x00000000f3b00000, 0x0000000100000000)
  eden space 121344K, 0% used [0x00000000eab00000,0x00000000eab00000,0x00000000f2180000)
  from space 12288K, 99% used [0x00000000f2180000,0x00000000f2d7e298,0x00000000f2d80000)
  to   space 10752K, 0% used [0x00000000f2d80000,0x00000000f2d80000,0x00000000f3800000)
 ParOldGen       total 40960K, used 26974K [0x00000000c0000000, 0x00000000c2800000, 0x00000000eab00000)
  object space 40960K, 65% used [0x00000000c0000000,0x00000000c1a57a50,0x00000000c2800000)
 Metaspace       used 7512K, capacity 8120K, committed 8192K, reserved 1056768K
  class space    used 705K, capacity 752K, committed 768K, reserved 1048576K

Card table byte_map: [0x00007f428db2e000,0x00007f428dd2f000] byte_map_base: 0x00007f428d52e000

Marking Bits: (ParMarkBitMap*) 0x00007f429042c760
 Begin Bits: [0x00007f4277000000, 0x00007f4278000000)
 End Bits:   [0x00007f4278000000, 0x00007f4279000000)

Polling page: 0x00007f4291073000

CodeCache: size=245760Kb used=8728Kb max_used=8742Kb free=237031Kb
 bounds [0x00007f4279000000, 0x00007f42798a0000, 0x00007f4288000000]
 total_blobs=2986 nmethods=2693 adapters=207
 compilation: enabled

Compilation events (10 events):
Event: 5,375 Thread 0x00007f42880b9000 2716       3       com.android.dx.merge.IndexMap$EncodedValueTransformer::transformAnnotation (68 bytes)
Event: 5,376 Thread 0x00007f42880b9000 nmethod 2716 0x00007f4279887650 code [0x00007f4279887860, 0x00007f42798881f8]
Event: 5,377 Thread 0x00007f42880b6000 nmethod 2709 0x00007f427988bb50 code [0x00007f427988bd40, 0x00007f427988c4f8]
Event: 5,377 Thread 0x00007f42880b6000 2715 %     4       java.util.HashMap::resize @ 154 (359 bytes)
Event: 5,387 Thread 0x00007f42880b9000 2721       2       com.android.dex.EncodedValueReader::readFloat (27 bytes)
Event: 5,387 Thread 0x00007f42880b9000 nmethod 2721 0x00007f427988b790 code [0x00007f427988b900, 0x00007f427988bab8]
Event: 5,388 Thread 0x00007f42880b9000 2723       2       com.android.dex.EncodedValueReader::readLong (23 bytes)
Event: 5,388 Thread 0x00007f42880b9000 nmethod 2723 0x00007f427988b050 code [0x00007f427988b1c0, 0x00007f427988b378]
Event: 5,405 Thread 0x00007f42880b6000 nmethod 2715% 0x00007f427988f410 code [0x00007f427988f620, 0x00007f4279890230]
Event: 5,405 Thread 0x00007f42880b6000 2714       4       java.util.HashMap::putVal (300 bytes)

GC Heap History (10 events):
Event: 1,832 GC heap after
Heap after GC invocations=2 (full 0):
 PSYoungGen      total 33280K, used 2550K [0x00000000eab00000, 0x00000000ece00000, 0x0000000100000000)
  eden space 30720K, 0% used [0x00000000eab00000,0x00000000eab00000,0x00000000ec900000)
  from space 2560K, 99% used [0x00000000ecb80000,0x00000000ecdfd958,0x00000000ece00000)
  to   space 2560K, 0% used [0x00000000ec900000,0x00000000ec900000,0x00000000ecb80000)
 ParOldGen       total 40960K, used 4514K [0x00000000c0000000, 0x00000000c2800000, 0x00000000eab00000)
  object space 40960K, 11% used [0x00000000c0000000,0x00000000c04688d8,0x00000000c2800000)
 Metaspace       used 5480K, capacity 6832K, committed 7040K, reserved 1056768K
  class space    used 541K, capacity 616K, committed 640K, reserved 1048576K
}
Event: 2,487 GC heap before
{Heap before GC invocations=3 (full 0):
 PSYoungGen      total 33280K, used 33270K [0x00000000eab00000, 0x00000000ece00000, 0x0000000100000000)
  eden space 30720K, 100% used [0x00000000eab00000,0x00000000ec900000,0x00000000ec900000)
  from space 2560K, 99% used [0x00000000ecb80000,0x00000000ecdfd958,0x00000000ece00000)
  to   space 2560K, 0% used [0x00000000ec900000,0x00000000ec900000,0x00000000ecb80000)
 ParOldGen       total 40960K, used 4514K [0x00000000c0000000, 0x00000000c2800000, 0x00000000eab00000)
  object space 40960K, 11% used [0x00000000c0000000,0x00000000c04688d8,0x00000000c2800000)
 Metaspace       used 5702K, capacity 7024K, committed 7296K, reserved 1056768K
  class space    used 547K, capacity 616K, committed 640K, reserved 1048576K
Event: 2,518 GC heap after
Heap after GC invocations=3 (full 0):
 PSYoungGen      total 33280K, used 2537K [0x00000000eab00000, 0x00000000eec00000, 0x0000000100000000)
  eden space 30720K, 0% used [0x00000000eab00000,0x00000000eab00000,0x00000000ec900000)
  from space 2560K, 99% used [0x00000000ec900000,0x00000000ecb7a520,0x00000000ecb80000)
  to   space 2560K, 0% used [0x00000000ee980000,0x00000000ee980000,0x00000000eec00000)
 ParOldGen       total 40960K, used 9528K [0x00000000c0000000, 0x00000000c2800000, 0x00000000eab00000)
  object space 40960K, 23% used [0x00000000c0000000,0x00000000c094e230,0x00000000c2800000)
 Metaspace       used 5702K, capacity 7024K, committed 7296K, reserved 1056768K
  class space    used 547K, capacity 616K, committed 640K, reserved 1048576K
}
Event: 2,887 GC heap before
{Heap before GC invocations=4 (full 0):
 PSYoungGen      total 33280K, used 33029K [0x00000000eab00000, 0x00000000eec00000, 0x0000000100000000)
  eden space 30720K, 99% used [0x00000000eab00000,0x00000000ec8c7288,0x00000000ec900000)
  from space 2560K, 99% used [0x00000000ec900000,0x00000000ecb7a520,0x00000000ecb80000)
  to   space 2560K, 0% used [0x00000000ee980000,0x00000000ee980000,0x00000000eec00000)
 ParOldGen       total 40960K, used 9528K [0x00000000c0000000, 0x00000000c2800000, 0x00000000eab00000)
  object space 40960K, 23% used [0x00000000c0000000,0x00000000c094e230,0x00000000c2800000)
 Metaspace       used 5803K, capacity 7088K, committed 7296K, reserved 1056768K
  class space    used 550K, capacity 616K, committed 640K, reserved 1048576K
Event: 2,921 GC heap after
Heap after GC invocations=4 (full 0):
 PSYoungGen      total 64000K, used 2546K [0x00000000eab00000, 0x00000000eec00000, 0x0000000100000000)
  eden space 61440K, 0% used [0x00000000eab00000,0x00000000eab00000,0x00000000ee700000)
  from space 2560K, 99% used [0x00000000ee980000,0x00000000eebfcac0,0x00000000eec00000)
  to   space 2560K, 0% used [0x00000000ee700000,0x00000000ee700000,0x00000000ee980000)
 ParOldGen       total 40960K, used 17150K [0x00000000c0000000, 0x00000000c2800000, 0x00000000eab00000)
  object space 40960K, 41% used [0x00000000c0000000,0x00000000c10bfb80,0x00000000c2800000)
 Metaspace       used 5803K, capacity 7088K, committed 7296K, reserved 1056768K
  class space    used 550K, capacity 616K, committed 640K, reserved 1048576K
}
Event: 4,390 GC heap before
{Heap before GC invocations=5 (full 0):
 PSYoungGen      total 64000K, used 62981K [0x00000000eab00000, 0x00000000eec00000, 0x0000000100000000)
  eden space 61440K, 98% used [0x00000000eab00000,0x00000000ee604cb0,0x00000000ee700000)
  from space 2560K, 99% used [0x00000000ee980000,0x00000000eebfcac0,0x00000000eec00000)
  to   space 2560K, 0% used [0x00000000ee700000,0x00000000ee700000,0x00000000ee980000)
 ParOldGen       total 40960K, used 17150K [0x00000000c0000000, 0x00000000c2800000, 0x00000000eab00000)
  object space 40960K, 41% used [0x00000000c0000000,0x00000000c10bfb80,0x00000000c2800000)
 Metaspace       used 7474K, capacity 8120K, committed 8192K, reserved 1056768K
  class space    used 704K, capacity 752K, committed 768K, reserved 1048576K
Event: 4,410 GC heap after
Heap after GC invocations=5 (full 0):
 PSYoungGen      total 64000K, used 2557K [0x00000000eab00000, 0x00000000f3800000, 0x0000000100000000)
  eden space 61440K, 0% used [0x00000000eab00000,0x00000000eab00000,0x00000000ee700000)
  from space 2560K, 99% used [0x00000000ee700000,0x00000000ee97f598,0x00000000ee980000)
  to   space 10752K, 0% used [0x00000000f2d80000,0x00000000f2d80000,0x00000000f3800000)
 ParOldGen       total 40960K, used 21953K [0x00000000c0000000, 0x00000000c2800000, 0x00000000eab00000)
  object space 40960K, 53% used [0x00000000c0000000,0x00000000c1570698,0x00000000c2800000)
 Metaspace       used 7474K, capacity 8120K, committed 8192K, reserved 1056768K
  class space    used 704K, capacity 752K, committed 768K, reserved 1048576K
}
Event: 4,746 GC heap before
{Heap before GC invocations=6 (full 0):
 PSYoungGen      total 64000K, used 63997K [0x00000000eab00000, 0x00000000f3800000, 0x0000000100000000)
  eden space 61440K, 100% used [0x00000000eab00000,0x00000000ee700000,0x00000000ee700000)
  from space 2560K, 99% used [0x00000000ee700000,0x00000000ee97f598,0x00000000ee980000)
  to   space 10752K, 0% used [0x00000000f2d80000,0x00000000f2d80000,0x00000000f3800000)
 ParOldGen       total 40960K, used 21953K [0x00000000c0000000, 0x00000000c2800000, 0x00000000eab00000)
  object space 40960K, 53% used [0x00000000c0000000,0x00000000c1570698,0x00000000c2800000)
 Metaspace       used 7496K, capacity 8120K, committed 8192K, reserved 1056768K
  class space    used 704K, capacity 752K, committed 768K, reserved 1048576K
Event: 4,789 GC heap after
Heap after GC invocations=6 (full 0):
 PSYoungGen      total 132096K, used 10653K [0x00000000eab00000, 0x00000000f3b00000, 0x0000000100000000)
  eden space 121344K, 0% used [0x00000000eab00000,0x00000000eab00000,0x00000000f2180000)
  from space 10752K, 99% used [0x00000000f2d80000,0x00000000f37e76d8,0x00000000f3800000)
  to   space 12288K, 0% used [0x00000000f2180000,0x00000000f2180000,0x00000000f2d80000)
 ParOldGen       total 40960K, used 23081K [0x00000000c0000000, 0x00000000c2800000, 0x00000000eab00000)
  object space 40960K, 56% used [0x00000000c0000000,0x00000000c168a448,0x00000000c2800000)
 Metaspace       used 7496K, capacity 8120K, committed 8192K, reserved 1056768K
  class space    used 704K, capacity 752K, committed 768K, reserved 1048576K
}
Event: 5,442 GC heap before
{Heap before GC invocations=7 (full 0):
 PSYoungGen      total 132096K, used 131997K [0x00000000eab00000, 0x00000000f3b00000, 0x0000000100000000)
  eden space 121344K, 100% used [0x00000000eab00000,0x00000000f2180000,0x00000000f2180000)
  from space 10752K, 99% used [0x00000000f2d80000,0x00000000f37e76d8,0x00000000f3800000)
  to   space 12288K, 0% used [0x00000000f2180000,0x00000000f2180000,0x00000000f2d80000)
 ParOldGen       total 40960K, used 23081K [0x00000000c0000000, 0x00000000c2800000, 0x00000000eab00000)
  object space 40960K, 56% used [0x00000000c0000000,0x00000000c168a448,0x00000000c2800000)
 Metaspace       used 7512K, capacity 8120K, committed 8192K, reserved 1056768K
  class space    used 705K, capacity 752K, committed 768K, reserved 1048576K

Deoptimization events (10 events):
Event: 3,116 Thread 0x00007f428800a800 Uncommon trap: reason=bimorphic action=maybe_recompile pc=0x00007f427960a400 method=java.util.HashMap.putVal(ILjava/lang/Object;Ljava/lang/Object;ZZ)Ljava/lang/Object; @ 203
Event: 3,116 Thread 0x00007f428800a800 Uncommon trap: reason=bimorphic action=maybe_recompile pc=0x00007f427960a400 method=java.util.HashMap.putVal(ILjava/lang/Object;Ljava/lang/Object;ZZ)Ljava/lang/Object; @ 203
Event: 3,551 Thread 0x00007f428800a800 Uncommon trap: reason=unstable_if action=reinterpret pc=0x00007f427933e498 method=java.util.Arrays.copyOf([Ljava/lang/Object;ILjava/lang/Class;)[Ljava/lang/Object; @ 3
Event: 3,739 Thread 0x00007f428800a800 Uncommon trap: reason=unstable_if action=reinterpret pc=0x00007f4279611848 method=java.util.HashMap.resize()[Ljava/util/HashMap$Node; @ 206
Event: 3,806 Thread 0x00007f428800a800 Uncommon trap: reason=unstable_if action=reinterpret pc=0x00007f4279606fac method=java.util.HashMap.getNode(ILjava/lang/Object;)Ljava/util/HashMap$Node; @ 84
Event: 3,928 Thread 0x00007f428800a800 Uncommon trap: reason=predicate action=maybe_recompile pc=0x00007f4279764b58 method=com.android.dex.Leb128.readUnsignedLeb128(Lcom/android/dex/util/ByteInput;)I @ 41
Event: 3,934 Thread 0x00007f428800a800 Uncommon trap: reason=unstable_if action=reinterpret pc=0x00007f427972a5d4 method=java.util.HashMap.putVal(ILjava/lang/Object;Ljava/lang/Object;ZZ)Ljava/lang/Object; @ 162
Event: 4,118 Thread 0x00007f428800a800 Uncommon trap: reason=unstable_if action=reinterpret pc=0x00007f427978f20c method=com.android.dex.Mutf8.decode(Lcom/android/dex/util/ByteInput;[C)Ljava/lang/String; @ 37
Event: 4,118 Thread 0x00007f428800a800 Uncommon trap: reason=unstable_if action=reinterpret pc=0x00007f42796f7598 method=com.android.dex.Mutf8.countBytes(Ljava/lang/String;Z)J @ 35
Event: 4,118 Thread 0x00007f428800a800 Uncommon trap: reason=unstable_if action=reinterpret pc=0x00007f42796f49dc method=com.android.dex.Mutf8.encode([BILjava/lang/String;)V @ 31

Internal exceptions (3 events):
Event: 0,143 Thread 0x00007f428800a800 Exception <a 'java/lang/NoSuchMethodError': Method sun.misc.Unsafe.defineClass(Ljava/lang/String;[BII)Ljava/lang/Class; name or signature does not match> (0x00000000eab12a38) thrown at [/RE-WORK/workspace/8-2-build-linux-amd64/jdk8u45/3457/hotspot/src/sha
Event: 0,143 Thread 0x00007f428800a800 Exception <a 'java/lang/NoSuchMethodError': Method sun.misc.Unsafe.prefetchRead(Ljava/lang/Object;J)V name or signature does not match> (0x00000000eab12cc8) thrown at [/RE-WORK/workspace/8-2-build-linux-amd64/jdk8u45/3457/hotspot/src/share/vm/prims/jni.cp
Event: 2,231 Thread 0x00007f428800a800 Implicit null exception at 0x00007f42792fd962 to 0x00007f42792fda53

Events (10 events):
Event: 5,298 Thread 0x00007f428800a800 DEOPT UNPACKING pc=0x00007f4279047233 sp=0x00007f42910520d0 mode 0
Event: 5,303 Thread 0x00007f428800a800 DEOPT PACKING pc=0x00007f42797d5b46 sp=0x00007f4291052390
Event: 5,303 Thread 0x00007f428800a800 DEOPT UNPACKING pc=0x00007f4279047233 sp=0x00007f42910520d0 mode 0
Event: 5,360 Thread 0x00007f428800a800 DEOPT PACKING pc=0x00007f4279808159 sp=0x00007f42910524c0
Event: 5,360 Thread 0x00007f428800a800 DEOPT UNPACKING pc=0x00007f4279047233 sp=0x00007f4291052260 mode 0
Event: 5,368 Thread 0x00007f428800a800 DEOPT PACKING pc=0x00007f4279808159 sp=0x00007f42910524c0
Event: 5,368 Thread 0x00007f428800a800 DEOPT UNPACKING pc=0x00007f4279047233 sp=0x00007f4291052260 mode 0
Event: 5,370 Thread 0x00007f428800a800 DEOPT PACKING pc=0x00007f4279808159 sp=0x00007f42910524c0
Event: 5,370 Thread 0x00007f428800a800 DEOPT UNPACKING pc=0x00007f4279047233 sp=0x00007f4291052260 mode 0
Event: 5,442 Executing VM operation: ParallelGCFailedAllocation


Dynamic libraries:
00400000-00401000 r-xp 00000000 08:08 401996                             /usr/lib/jvm/java-8-oracle/bin/java
00600000-00601000 rw-p 00000000 08:08 401996                             /usr/lib/jvm/java-8-oracle/bin/java
01900000-01921000 rw-p 00000000 00:00 0                                  [heap]
c0000000-c2800000 rw-p 00000000 00:00 0 
c2800000-eab00000 ---p 00000000 00:00 0 
eab00000-f3b00000 rw-p 00000000 00:00 0 
fb700000-100000000 ---p 00000000 00:00 0 
100000000-1000c0000 rw-p 00000000 00:00 0 
1000c0000-140000000 ---p 00000000 00:00 0 
7f4248000000-7f4248021000 rw-p 00000000 00:00 0 
7f4248021000-7f424c000000 ---p 00000000 00:00 0 
7f4250000000-7f425076d000 rw-p 00000000 00:00 0 
7f425076d000-7f4254000000 ---p 00000000 00:00 0 
7f4254000000-7f4254021000 rw-p 00000000 00:00 0 
7f4254021000-7f4258000000 ---p 00000000 00:00 0 
7f4258000000-7f4258021000 rw-p 00000000 00:00 0 
7f4258021000-7f425c000000 ---p 00000000 00:00 0 
7f425c000000-7f425ce4c000 rw-p 00000000 00:00 0 
7f425ce4c000-7f4260000000 ---p 00000000 00:00 0 
7f4260000000-7f4260021000 rw-p 00000000 00:00 0 
7f4260021000-7f4264000000 ---p 00000000 00:00 0 
7f4264000000-7f4264021000 rw-p 00000000 00:00 0 
7f4264021000-7f4268000000 ---p 00000000 00:00 0 
7f4268000000-7f4268021000 rw-p 00000000 00:00 0 
7f4268021000-7f426c000000 ---p 00000000 00:00 0 
7f426c000000-7f426c28a000 rw-p 00000000 00:00 0 
7f426c28a000-7f4270000000 ---p 00000000 00:00 0 
7f4270000000-7f4270021000 rw-p 00000000 00:00 0 
7f4270021000-7f4274000000 ---p 00000000 00:00 0 
7f4276492000-7f4276493000 ---p 00000000 00:00 0 
7f4276493000-7f4276593000 rw-p 00000000 00:00 0                          [stack:4968]
7f4276593000-7f4276596000 ---p 00000000 00:00 0 
7f4276596000-7f4276694000 rw-p 00000000 00:00 0                          [stack:4967]
7f4276694000-7f4276697000 ---p 00000000 00:00 0 
7f4276697000-7f4276795000 rw-p 00000000 00:00 0                          [stack:4966]
7f4276795000-7f4276798000 ---p 00000000 00:00 0 
7f4276798000-7f4276896000 rw-p 00000000 00:00 0                          [stack:4965]
7f4276896000-7f4276899000 ---p 00000000 00:00 0 
7f4276899000-7f4276997000 rw-p 00000000 00:00 0                          [stack:4964]
7f4276997000-7f4276eff000 r--p 00000000 08:08 135937                     /usr/lib/locale/locale-archive
7f4276eff000-7f4276f02000 ---p 00000000 00:00 0 
7f4276f02000-7f4279000000 rw-p 00000000 00:00 0                          [stack:4963]
7f4279000000-7f42798a0000 rwxp 00000000 00:00 0 
7f42798a0000-7f4288000000 ---p 00000000 00:00 0 
7f4288000000-7f428839b000 rw-p 00000000 00:00 0 
7f428839b000-7f428c000000 ---p 00000000 00:00 0 
7f428c007000-7f428c00c000 r--s 00094000 08:08 302214                     /usr/lib/jvm/java-8-oracle/jre/lib/jsse.jar
7f428c00c000-7f428c00f000 ---p 00000000 00:00 0 
7f428c00f000-7f428c10d000 rw-p 00000000 00:00 0                          [stack:4962]
7f428c10d000-7f428c10e000 ---p 00000000 00:00 0 
7f428c10e000-7f428cb87000 rw-p 00000000 00:00 0                          [stack:4961]
7f428cb87000-7f428cd60000 r--s 03d09000 08:08 302113                     /usr/lib/jvm/java-8-oracle/jre/lib/rt.jar
7f428cd60000-7f428d516000 rw-p 00000000 00:00 0 
7f428d516000-7f428d5d6000 ---p 00000000 00:00 0 
7f428d5d6000-7f428d7d6000 rw-p 00000000 00:00 0 
7f428d7d6000-7f428d7d7000 ---p 00000000 00:00 0 
7f428d7d7000-7f428d8d7000 rw-p 00000000 00:00 0                          [stack:4960]
7f428d8d7000-7f428d8d8000 ---p 00000000 00:00 0 
7f428d8d8000-7f428d9ec000 rw-p 00000000 00:00 0                          [stack:4959]
7f428d9ec000-7f428db2e000 ---p 00000000 00:00 0 
7f428db2e000-7f428db42000 rw-p 00000000 00:00 0 
7f428db42000-7f428dc83000 ---p 00000000 00:00 0 
7f428dc83000-7f428dccc000 rw-p 00000000 00:00 0 
7f428dccc000-7f428dd2e000 ---p 00000000 00:00 0 
7f428dd2e000-7f428dd52000 rw-p 00000000 00:00 0 
7f428dd52000-7f428e0ef000 ---p 00000000 00:00 0 
7f428e0ef000-7f428e109000 r-xp 00000000 08:08 302278                     /usr/lib/jvm/java-8-oracle/jre/lib/amd64/libzip.so
7f428e109000-7f428e309000 ---p 0001a000 08:08 302278                     /usr/lib/jvm/java-8-oracle/jre/lib/amd64/libzip.so
7f428e309000-7f428e30a000 rw-p 0001a000 08:08 302278                     /usr/lib/jvm/java-8-oracle/jre/lib/amd64/libzip.so
7f428e30a000-7f428e315000 r-xp 00000000 08:08 269360                     /lib/x86_64-linux-gnu/libnss_files-2.19.so
7f428e315000-7f428e514000 ---p 0000b000 08:08 269360                     /lib/x86_64-linux-gnu/libnss_files-2.19.so
7f428e514000-7f428e515000 r--p 0000a000 08:08 269360                     /lib/x86_64-linux-gnu/libnss_files-2.19.so
7f428e515000-7f428e516000 rw-p 0000b000 08:08 269360                     /lib/x86_64-linux-gnu/libnss_files-2.19.so
7f428e516000-7f428e521000 r-xp 00000000 08:08 269370                     /lib/x86_64-linux-gnu/libnss_nis-2.19.so
7f428e521000-7f428e720000 ---p 0000b000 08:08 269370                     /lib/x86_64-linux-gnu/libnss_nis-2.19.so
7f428e720000-7f428e721000 r--p 0000a000 08:08 269370                     /lib/x86_64-linux-gnu/libnss_nis-2.19.so
7f428e721000-7f428e722000 rw-p 0000b000 08:08 269370                     /lib/x86_64-linux-gnu/libnss_nis-2.19.so
7f428e722000-7f428e739000 r-xp 00000000 08:08 269354                     /lib/x86_64-linux-gnu/libnsl-2.19.so
7f428e739000-7f428e938000 ---p 00017000 08:08 269354                     /lib/x86_64-linux-gnu/libnsl-2.19.so
7f428e938000-7f428e939000 r--p 00016000 08:08 269354                     /lib/x86_64-linux-gnu/libnsl-2.19.so
7f428e939000-7f428e93a000 rw-p 00017000 08:08 269354                     /lib/x86_64-linux-gnu/libnsl-2.19.so
7f428e93a000-7f428e93c000 rw-p 00000000 00:00 0 
7f428e93c000-7f428e945000 r-xp 00000000 08:08 269356                     /lib/x86_64-linux-gnu/libnss_compat-2.19.so
7f428e945000-7f428eb44000 ---p 00009000 08:08 269356                     /lib/x86_64-linux-gnu/libnss_compat-2.19.so
7f428eb44000-7f428eb45000 r--p 00008000 08:08 269356                     /lib/x86_64-linux-gnu/libnss_compat-2.19.so
7f428eb45000-7f428eb46000 rw-p 00009000 08:08 269356                     /lib/x86_64-linux-gnu/libnss_compat-2.19.so
7f428eb46000-7f428eb70000 r-xp 00000000 08:08 302308                     /usr/lib/jvm/java-8-oracle/jre/lib/amd64/libjava.so
7f428eb70000-7f428ed70000 ---p 0002a000 08:08 302308                     /usr/lib/jvm/java-8-oracle/jre/lib/amd64/libjava.so
7f428ed70000-7f428ed72000 rw-p 0002a000 08:08 302308                     /usr/lib/jvm/java-8-oracle/jre/lib/amd64/libjava.so
7f428ed72000-7f428ed7f000 r-xp 00000000 08:08 302297                     /usr/lib/jvm/java-8-oracle/jre/lib/amd64/libverify.so
7f428ed7f000-7f428ef7f000 ---p 0000d000 08:08 302297                     /usr/lib/jvm/java-8-oracle/jre/lib/amd64/libverify.so
7f428ef7f000-7f428ef81000 rw-p 0000d000 08:08 302297                     /usr/lib/jvm/java-8-oracle/jre/lib/amd64/libverify.so
7f428ef81000-7f428ef88000 r-xp 00000000 08:08 269413                     /lib/x86_64-linux-gnu/librt-2.19.so
7f428ef88000-7f428f187000 ---p 00007000 08:08 269413                     /lib/x86_64-linux-gnu/librt-2.19.so
7f428f187000-7f428f188000 r--p 00006000 08:08 269413                     /lib/x86_64-linux-gnu/librt-2.19.so
7f428f188000-7f428f189000 rw-p 00007000 08:08 269413                     /lib/x86_64-linux-gnu/librt-2.19.so
7f428f189000-7f428f28e000 r-xp 00000000 08:08 269335                     /lib/x86_64-linux-gnu/libm-2.19.so
7f428f28e000-7f428f48d000 ---p 00105000 08:08 269335                     /lib/x86_64-linux-gnu/libm-2.19.so
7f428f48d000-7f428f48e000 r--p 00104000 08:08 269335                     /lib/x86_64-linux-gnu/libm-2.19.so
7f428f48e000-7f428f48f000 rw-p 00105000 08:08 269335                     /lib/x86_64-linux-gnu/libm-2.19.so
7f428f48f000-7f429013d000 r-xp 00000000 08:08 302251                     /usr/lib/jvm/java-8-oracle/jre/lib/amd64/server/libjvm.so
7f429013d000-7f429033c000 ---p 00cae000 08:08 302251                     /usr/lib/jvm/java-8-oracle/jre/lib/amd64/server/libjvm.so
7f429033c000-7f4290413000 rw-p 00cad000 08:08 302251                     /usr/lib/jvm/java-8-oracle/jre/lib/amd64/server/libjvm.so
7f4290413000-7f4290457000 rw-p 00000000 00:00 0 
7f4290457000-7f4290612000 r-xp 00000000 08:08 269285                     /lib/x86_64-linux-gnu/libc-2.19.so
7f4290612000-7f4290811000 ---p 001bb000 08:08 269285                     /lib/x86_64-linux-gnu/libc-2.19.so
7f4290811000-7f4290815000 r--p 001ba000 08:08 269285                     /lib/x86_64-linux-gnu/libc-2.19.so
7f4290815000-7f4290817000 rw-p 001be000 08:08 269285                     /lib/x86_64-linux-gnu/libc-2.19.so
7f4290817000-7f429081c000 rw-p 00000000 00:00 0 
7f429081c000-7f429081f000 r-xp 00000000 08:08 269302                     /lib/x86_64-linux-gnu/libdl-2.19.so
7f429081f000-7f4290a1e000 ---p 00003000 08:08 269302                     /lib/x86_64-linux-gnu/libdl-2.19.so
7f4290a1e000-7f4290a1f000 r--p 00002000 08:08 269302                     /lib/x86_64-linux-gnu/libdl-2.19.so
7f4290a1f000-7f4290a20000 rw-p 00003000 08:08 269302                     /lib/x86_64-linux-gnu/libdl-2.19.so
7f4290a20000-7f4290a35000 r-xp 00000000 08:08 171758                     /usr/lib/jvm/java-8-oracle/lib/amd64/jli/libjli.so
7f4290a35000-7f4290c35000 ---p 00015000 08:08 171758                     /usr/lib/jvm/java-8-oracle/lib/amd64/jli/libjli.so
7f4290c35000-7f4290c36000 rw-p 00015000 08:08 171758                     /usr/lib/jvm/java-8-oracle/lib/amd64/jli/libjli.so
7f4290c36000-7f4290c4f000 r-xp 00000000 08:08 269405                     /lib/x86_64-linux-gnu/libpthread-2.19.so
7f4290c4f000-7f4290e4e000 ---p 00019000 08:08 269405                     /lib/x86_64-linux-gnu/libpthread-2.19.so
7f4290e4e000-7f4290e4f000 r--p 00018000 08:08 269405                     /lib/x86_64-linux-gnu/libpthread-2.19.so
7f4290e4f000-7f4290e50000 rw-p 00019000 08:08 269405                     /lib/x86_64-linux-gnu/libpthread-2.19.so
7f4290e50000-7f4290e54000 rw-p 00000000 00:00 0 
7f4290e54000-7f4290e77000 r-xp 00000000 08:08 269261                     /lib/x86_64-linux-gnu/ld-2.19.so
7f4290e7a000-7f4290f53000 rw-p 00000000 00:00 0 
7f4290f53000-7f4290f56000 ---p 00000000 00:00 0 
7f4290f56000-7f4291058000 rw-p 00000000 00:00 0                          [stack:4958]
7f429105a000-7f429105b000 rw-p 00000000 00:00 0 
7f429105b000-7f429106a000 r--s 000dd000 08:0a 1583307                    /home/ilya/android-sdk-linux/build-tools/22.0.1/lib/dx.jar
7f429106a000-7f4291072000 rw-s 00000000 08:08 53429                      /tmp/hsperfdata_root/4952
7f4291072000-7f4291073000 rw-p 00000000 00:00 0 
7f4291073000-7f4291074000 ---p 00000000 00:00 0 
7f4291074000-7f4291076000 rw-p 00000000 00:00 0 
7f4291076000-7f4291077000 r--p 00022000 08:08 269261                     /lib/x86_64-linux-gnu/ld-2.19.so
7f4291077000-7f4291078000 rw-p 00023000 08:08 269261                     /lib/x86_64-linux-gnu/ld-2.19.so
7f4291078000-7f4291079000 rw-p 00000000 00:00 0 
7ffdaf417000-7ffdaf438000 rw-p 00000000 00:00 0                          [stack]
7ffdaf4ad000-7ffdaf4af000 r-xp 00000000 00:00 0                          [vdso]
7ffdaf4af000-7ffdaf4b1000 r--p 00000000 00:00 0                          [vvar]
ffffffffff600000-ffffffffff601000 r-xp 00000000 00:00 0                  [vsyscall]

VM Arguments:
jvm_args: -Xmx1024M -Dfile.encoding=UTF-8 -Duser.country=US -Duser.language=en -Duser.variant 
java_command: com.android.dx.command.Main --dex --output /home/ilya/AMovies/app/build/intermediates/dex/debug /home/ilya/AMovies/app/build/intermediates/classes/debug /home/ilya/AMovies/app/build/intermediates/pre-dexed/debug/support-annotations-22.2.1-d2f0f8af6cbe90f07a219f37a6069a18f1507224.jar /home/ilya/AMovies/app/build/intermediates/pre-dexed/debug/classes-2cdc94fb75a1b5e4d4cae2b61e9424dbe03ea7ea.jar /home/ilya/AMovies/app/build/intermediates/pre-dexed/debug/butterknife-7.0.1-6bbe9b5d6a4ec71d1909297ac4c56013742f2fa4.jar /home/ilya/AMovies/app/build/intermediates/pre-dexed/debug/retrofit-1.8.0-f2c3e20619585388417f83d6e1c9c29b9af888f7.jar /home/ilya/AMovies/app/build/intermediates/pre-dexed/debug/YouTubeAndroidPlayerApi-c5a8eb867c61d7e0e6f25773b8e37a220e990132.jar /home/ilya/AMovies/app/build/intermediates/pre-dexed/debug/picasso-2.4.0-3a89582e5bf4da72ba3ef2cd301ccbf9b2ad12fd.jar /home/ilya/AMovies/app/build/intermediates/pre-dexed/debug/gson-2.3.1-db347212bcda2648244d4b24078ad368b698503a.jar /home/ilya/AMovies/app/build/intermediates/pre-dexed/debug/classes-d081d79988c0a5e2716097215466f81e7960b23e.jar /home/ilya/AMovies/app/build/intermediates/pre-dexed/debug/internal_impl-22.2.1-3714a0ecbd78d527e5c2830caad2bc6026c2d49a.jar /home/ilya/AMovies/app/build/intermediates/pre-dexed/debug/classes-4afe9cce711c98af0ffc0f89fcc6c733981bf185.jar /home/ilya/AMovies/app/build/intermediates/pre-dexed/debug/classes-38cb867b4c0c791b9e65974e709eabf26d748f6f.jar /home/ilya/AMovies/app/build/intermediates/pre-dexed/debug/classes-be609139a101e24ff05175f12c54df22a4ddfacb.jar /home/ilya/AMovies/app/build/intermediates/pre-dexed/debug/realm-android-0.82.1-871de0c075100ed7a47ca4da5e1a279a5228ba58.jar
java_class_path (initial): /home/ilya/android-sdk-linux/build-tools/22.0.1/lib/dx.jar
Launcher Type: SUN_STANDARD

Environment Variables:
PATH=/usr/local/sbin:/usr/local/bin:/usr/sbin:/usr/bin:/sbin:/bin
USERNAME=root
LD_LIBRARY_PATH=.:
SHELL=/bin/bash
DISPLAY=:0

Signal Handlers:
SIGSEGV: [libjvm.so+0xaad1e0], sa_mask[0]=11111111011111111101111111111110, sa_flags=SA_RESTART|SA_SIGINFO
SIGBUS: [libjvm.so+0xaad1e0], sa_mask[0]=11111111011111111101111111111110, sa_flags=SA_RESTART|SA_SIGINFO
SIGFPE: [libjvm.so+0x90b450], sa_mask[0]=11111111011111111101111111111110, sa_flags=SA_RESTART|SA_SIGINFO
SIGPIPE: [libjvm.so+0x90b450], sa_mask[0]=11111111011111111101111111111110, sa_flags=SA_RESTART|SA_SIGINFO
SIGXFSZ: [libjvm.so+0x90b450], sa_mask[0]=11111111011111111101111111111110, sa_flags=SA_RESTART|SA_SIGINFO
SIGILL: [libjvm.so+0x90b450], sa_mask[0]=11111111011111111101111111111110, sa_flags=SA_RESTART|SA_SIGINFO
SIGUSR1: SIG_DFL, sa_mask[0]=00000000000000000000000000000000, sa_flags=none
SIGUSR2: [libjvm.so+0x90ca90], sa_mask[0]=00100000000000000000000000000000, sa_flags=SA_RESTART|SA_SIGINFO
SIGHUP: [libjvm.so+0x90dde0], sa_mask[0]=11111111011111111101111111111110, sa_flags=SA_RESTART|SA_SIGINFO
SIGINT: [libjvm.so+0x90dde0], sa_mask[0]=11111111011111111101111111111110, sa_flags=SA_RESTART|SA_SIGINFO
SIGTERM: [libjvm.so+0x90dde0], sa_mask[0]=11111111011111111101111111111110, sa_flags=SA_RESTART|SA_SIGINFO
SIGQUIT: [libjvm.so+0x90dde0], sa_mask[0]=11111111011111111101111111111110, sa_flags=SA_RESTART|SA_SIGINFO


---------------  S Y S T E M  ---------------

OS:DISTRIB_ID="elementary OS"
DISTRIB_RELEASE=0.3
DISTRIB_CODENAME=freya
DISTRIB_DESCRIPTION="elementary OS Freya"

uname:Linux 3.16.0-38-generic #52~14.04.1-Ubuntu SMP Fri May 8 09:43:57 UTC 2015 x86_64
libc:glibc 2.19 NPTL 2.19 
rlimit: STACK 8192k, CORE 0k, NPROC 14526, NOFILE 4096, AS infinity
load average:1,34 0,95 0,72

/proc/meminfo:
MemTotal:        3928904 kB
MemFree:          137928 kB
MemAvailable:     100892 kB
Buffers:            3484 kB
Cached:           426636 kB
SwapCached:            0 kB
Active:          2690860 kB
Inactive:         371464 kB
Active(anon):    2660008 kB
Inactive(anon):   339220 kB
Active(file):      30852 kB
Inactive(file):    32244 kB
Unevictable:           0 kB
Mlocked:               0 kB
SwapTotal:             0 kB
SwapFree:              0 kB
Dirty:              3136 kB
Writeback:             0 kB
AnonPages:       2632172 kB
Mapped:           771040 kB
Shmem:            367036 kB
Slab:              62620 kB
SReclaimable:      31760 kB
SUnreclaim:        30860 kB
KernelStack:        8768 kB
PageTables:        30352 kB
NFS_Unstable:          0 kB
Bounce:                0 kB
WritebackTmp:          0 kB
CommitLimit:     1964452 kB
Committed_AS:    5570204 kB
VmallocTotal:   34359738367 kB
VmallocUsed:      349592 kB
VmallocChunk:   34359382532 kB
HardwareCorrupted:     0 kB
AnonHugePages:   1153024 kB
HugePages_Total:       0
HugePages_Free:        0
HugePages_Rsvd:        0
HugePages_Surp:        0
Hugepagesize:       2048 kB
DirectMap4k:       92376 kB
DirectMap2M:     3983360 kB


CPU:total 2 (2 cores per cpu, 1 threads per core) family 6 model 42 stepping 7, cmov, cx8, fxsr, mmx, sse, sse2, sse3, ssse3, sse4.1, sse4.2, popcnt, clmul, tsc, tscinvbit

/proc/cpuinfo:
processor	: 0
vendor_id	: GenuineIntel
cpu family	: 6
model		: 42
model name	: Intel(R) Celeron(R) CPU B830 @ 1.80GHz
stepping	: 7
microcode	: 0x28
cpu MHz		: 972.562
cache size	: 2048 KB
physical id	: 0
siblings	: 2
core id		: 0
cpu cores	: 2
apicid		: 0
initial apicid	: 0
fpu		: yes
fpu_exception	: yes
cpuid level	: 13
wp		: yes
flags		: fpu vme de pse tsc msr pae mce cx8 apic sep mtrr pge mca cmov pat pse36 clflush dts acpi mmx fxsr sse sse2 ss ht tm pbe syscall nx rdtscp lm constant_tsc arch_perfmon pebs bts rep_good nopl xtopology nonstop_tsc aperfmperf eagerfpu pni pclmulqdq dtes64 monitor ds_cpl vmx est tm2 ssse3 cx16 xtpr pdcm pcid sse4_1 sse4_2 x2apic popcnt tsc_deadline_timer xsave lahf_lm arat epb xsaveopt pln pts dtherm tpr_shadow vnmi flexpriority ept vpid
bogomips	: 3592.14
clflush size	: 64
cache_alignment	: 64
address sizes	: 36 bits physical, 48 bits virtual
power management:

processor	: 1
vendor_id	: GenuineIntel
cpu family	: 6
model		: 42
model name	: Intel(R) Celeron(R) CPU B830 @ 1.80GHz
stepping	: 7
microcode	: 0x28
cpu MHz		: 981.632
cache size	: 2048 KB
physical id	: 0
siblings	: 2
core id		: 1
cpu cores	: 2
apicid		: 2
initial apicid	: 2
fpu		: yes
fpu_exception	: yes
cpuid level	: 13
wp		: yes
flags		: fpu vme de pse tsc msr pae mce cx8 apic sep mtrr pge mca cmov pat pse36 clflush dts acpi mmx fxsr sse sse2 ss ht tm pbe syscall nx rdtscp lm constant_tsc arch_perfmon pebs bts rep_good nopl xtopology nonstop_tsc aperfmperf eagerfpu pni pclmulqdq dtes64 monitor ds_cpl vmx est tm2 ssse3 cx16 xtpr pdcm pcid sse4_1 sse4_2 x2apic popcnt tsc_deadline_timer xsave lahf_lm arat epb xsaveopt pln pts dtherm tpr_shadow vnmi flexpriority ept vpid
bogomips	: 3592.14
clflush size	: 64
cache_alignment	: 64
address sizes	: 36 bits physical, 48 bits virtual
power management:



Memory: 4k page, physical 3928904k(137928k free), swap 0k(0k free)

vm_info: Java HotSpot(TM) 64-Bit Server VM (25.45-b02) for linux-amd64 JRE (1.8.0_45-b14), built on Apr 10 2015 10:07:45 by "java_re" with gcc 4.3.0 20080428 (Red Hat 4.3.0-8)

time: Sun Oct  4 18:32:25 2015
elapsed time: 5 seconds (0d 0h 0m 5s)

